{
    "key": "group_61c4c4a37f1e8",
    "title": "תמונה בראש העמוד",
    "fields": [
        {
            "key": "field_61c4c4c954188",
            "label": "תמונה בראש העמוד",
            "name": "top_img",
            "type": "image",
            "instructions": "",
            "required": 0,
            "conditional_logic": 0,
            "wrapper": {
                "width": "",
                "class": "",
                "id": ""
            },
            "return_format": "array",
            "preview_size": "2048x2048",
            "library": "all",
            "min_width": "",
            "min_height": "",
            "min_size": "",
            "max_width": "",
            "max_height": "",
            "max_size": "",
            "mime_types": ""
        }
    ],
    "location": [
        [
            {
                "param": "post_type",
                "operator": "==",
                "value": "post"
            }
        ],
        [
            {
                "param": "taxonomy",
                "operator": "==",
                "value": "all"
            }
        ],
        [
            {
                "param": "options_page",
                "operator": "==",
                "value": "theme-general-settings"
            }
        ],
        [
            {
                "param": "page_template",
                "operator": "==",
                "value": "views\/blog.php"
            }
        ],
        [
            {
                "param": "page_template",
                "operator": "==",
                "value": "views\/properties.php"
            }
        ]
    ],
    "menu_order": 0,
    "position": "acf_after_title",
    "style": "default",
    "label_placement": "top",
    "instruction_placement": "label",
    "hide_on_screen": "",
    "active": true,
    "description": "",
    "show_in_rest": 0,
    "modified": 1640285464
}